{
  "nexmo": {
    "config": {
      "apiKey": "1ce610e2",
      "apiSecret": "8966265bd501dbaa",
      "appId": "23fcc6cc-9b18-49fe-beaa-f700c3cbf2fc"
    },
    "debug": true
  },
  "firebaseDatabaseURL": "https://eventiplex-public.firebaseio.com/",
  "senderName": "Eventiplex"
}
